<svg width="11px" height="10px" viewBox="0 0 11 10" version="1.1" xmlns="http://www.w3.org/2000/svg" xmlns:xlink="http://www.w3.org/1999/xlink">
    <g id="Page-1" stroke="none" stroke-width="1" fill="none" fill-rule="evenodd">
        <g id="Автоматизация-3" transform="translate(-274.000000, -249.000000)" fill="#525C69">
            <polygon id="Path" points="280.957931 253.992604 285 257.674183 283.544362 259 279.502293 255.318421 275.470769 258.990395 274 257.650796 278.031524 253.978822 274.020827 250.325817 275.476465 249 279.487162 252.653005 283.497859 249 284.968628 250.339599"></polygon>
        </g>
    </g>
</svg>