<?xml version="1.0" encoding="UTF-8"?>
<svg width="26px" height="26px" viewBox="0 0 26 26" version="1.1" xmlns="http://www.w3.org/2000/svg" xmlns:xlink="http://www.w3.org/1999/xlink">
    <g id="ui-angle-up-black" transform="translate(13, 13) rotate(-270) translate(-13, -13) translate(9, 7)" fill="#535C69" fill-rule="nonzero">
        <polygon id="Path" points="6.142 0.071 7.556 1.485 1.9 7.142 0.486 5.728"></polygon>
        <polygon id="Path" points="7.556 9.97 6.142 11.385 0.485 5.728 1.9 4.314"></polygon>
    </g>
</svg>