<svg width="11px" height="11px" viewBox="0 0 11 11" version="1.1" xmlns="http://www.w3.org/2000/svg" xmlns:xlink="http://www.w3.org/1999/xlink">
    <g id="Page-1" stroke="none" stroke-width="1" fill="none" fill-rule="evenodd">
        <g id="Автоматизация-3" transform="translate(-254.000000, -249.000000)" fill="#525C69">
            <g id="Icons-/-·-Set-4-/-Icon-18" transform="translate(226.000000, 249.000000)">
                <path d="M37.0319833,0 L39,1.98873609 L30.9680167,10 L29,8.01126392 L37.0319833,0 Z M28.0055834,10.7913946 C27.9904249,10.8487625 28.0066661,10.9093776 28.0478104,10.9515918 C28.0900375,10.9938059 28.1506712,11.0100421 28.2080567,10.9938059 L30,10.5110494 L28.4884877,9 L28.0055834,10.7913946 Z" id="Icon"></path>
            </g>
        </g>
    </g>
</svg>