<svg width="10px" height="10px" viewBox="0 0 10 10" version="1.1" xmlns="http://www.w3.org/2000/svg" xmlns:xlink="http://www.w3.org/1999/xlink">
    <g id="Symbols" stroke="none" stroke-width="1" fill="none" fill-rule="evenodd">
        <g id="добавить" transform="translate(0.000000, -3.000000)" fill="#535C69">
            <path d="M6,7 L10,7 L10,9 L6,9 L6,13 L4,13 L4,9 L0,9 L0,7 L4,7 L4,3 L6,3 L6,7 Z" id="Combined-Shape"></path>
        </g>
    </g>
</svg>