<svg xmlns="http://www.w3.org/2000/svg" width="10" height="10" viewBox="0 0 10 10">
  <path fill="#535C69" d="M907.061669,258 L908.990291,259.928622 L902.07275,266.844782 L900.144127,264.91616 L907.061669,258 Z M899.007124,267.723439 C898.987783,267.79666 899.008506,267.874026 899.061004,267.927906 C899.114884,267.981786 899.19225,268.002509 899.265471,267.981786 L901.551911,267.365621 L899.623289,265.436999 L899.007124,267.723439 Z" transform="translate(-899 -258)"/>
</svg>
